<?xml version="1.0" encoding="utf-8" standalone="no"?>
<!DOCTYPE svg PUBLIC "-//W3C//DTD SVG 1.1//EN"
  "http://www.w3.org/Graphics/SVG/1.1/DTD/svg11.dtd">
<svg xmlns:xlink="http://www.w3.org/1999/xlink" width="460.8pt" height="345.6pt" viewBox="0 0 460.8 345.6" xmlns="http://www.w3.org/2000/svg" version="1.1">
 <metadata>
  <rdf:RDF xmlns:dc="http://purl.org/dc/elements/1.1/" xmlns:cc="http://creativecommons.org/ns#" xmlns:rdf="http://www.w3.org/1999/02/22-rdf-syntax-ns#">
   <cc:Work>
    <dc:type rdf:resource="http://purl.org/dc/dcmitype/StillImage"/>
    <dc:date>2023-02-20T15:42:50.530339</dc:date>
    <dc:format>image/svg+xml</dc:format>
    <dc:creator>
     <cc:Agent>
      <dc:title>Matplotlib v3.5.3, https://matplotlib.org/</dc:title>
     </cc:Agent>
    </dc:creator>
   </cc:Work>
  </rdf:RDF>
 </metadata>
 <defs>
  <style type="text/css">*{stroke-linejoin: round; stroke-linecap: butt}</style>
 </defs>
 <g id="figure_1">
  <g id="patch_1">
   <path d="M 0 345.6 
L 460.8 345.6 
L 460.8 0 
L 0 0 
z
" style="fill: #ffffff"/>
  </g>
  <g id="axes_1">
   <g id="patch_2">
    <path d="M 57.6 307.584 
L 414.72 307.584 
L 414.72 41.472 
L 57.6 41.472 
z
" style="fill: #ffffff"/>
   </g>
   <g id="matplotlib.axis_1">
    <g id="xtick_1">
     <g id="line2d_1">
      <defs>
       <path id="meec604794b" d="M 0 0 
L 0 3.5 
" style="stroke: #000000; stroke-width: 0.8"/>
      </defs>
      <g>
       <use xlink:href="#meec604794b" x="73.832727" y="307.584" style="stroke: #000000; stroke-width: 0.8"/>
      </g>
     </g>
     <g id="text_1">
      <!-- 0 -->
      <g transform="translate(70.651477 322.182437)scale(0.1 -0.1)">
       <defs>
        <path id="DejaVuSans-30" d="M 2034 4250 
Q 1547 4250 1301 3770 
Q 1056 3291 1056 2328 
Q 1056 1369 1301 889 
Q 1547 409 2034 409 
Q 2525 409 2770 889 
Q 3016 1369 3016 2328 
Q 3016 3291 2770 3770 
Q 2525 4250 2034 4250 
z
M 2034 4750 
Q 2819 4750 3233 4129 
Q 3647 3509 3647 2328 
Q 3647 1150 3233 529 
Q 2819 -91 2034 -91 
Q 1250 -91 836 529 
Q 422 1150 422 2328 
Q 422 3509 836 4129 
Q 1250 4750 2034 4750 
z
" transform="scale(0.015625)"/>
       </defs>
       <use xlink:href="#DejaVuSans-30"/>
      </g>
     </g>
    </g>
    <g id="xtick_2">
     <g id="line2d_2">
      <g>
       <use xlink:href="#meec604794b" x="114.618474" y="307.584" style="stroke: #000000; stroke-width: 0.8"/>
      </g>
     </g>
     <g id="text_2">
      <!-- 25 -->
      <g transform="translate(108.255974 322.182437)scale(0.1 -0.1)">
       <defs>
        <path id="DejaVuSans-32" d="M 1228 531 
L 3431 531 
L 3431 0 
L 469 0 
L 469 531 
Q 828 903 1448 1529 
Q 2069 2156 2228 2338 
Q 2531 2678 2651 2914 
Q 2772 3150 2772 3378 
Q 2772 3750 2511 3984 
Q 2250 4219 1831 4219 
Q 1534 4219 1204 4116 
Q 875 4013 500 3803 
L 500 4441 
Q 881 4594 1212 4672 
Q 1544 4750 1819 4750 
Q 2544 4750 2975 4387 
Q 3406 4025 3406 3419 
Q 3406 3131 3298 2873 
Q 3191 2616 2906 2266 
Q 2828 2175 2409 1742 
Q 1991 1309 1228 531 
z
" transform="scale(0.015625)"/>
        <path id="DejaVuSans-35" d="M 691 4666 
L 3169 4666 
L 3169 4134 
L 1269 4134 
L 1269 2991 
Q 1406 3038 1543 3061 
Q 1681 3084 1819 3084 
Q 2600 3084 3056 2656 
Q 3513 2228 3513 1497 
Q 3513 744 3044 326 
Q 2575 -91 1722 -91 
Q 1428 -91 1123 -41 
Q 819 9 494 109 
L 494 744 
Q 775 591 1075 516 
Q 1375 441 1709 441 
Q 2250 441 2565 725 
Q 2881 1009 2881 1497 
Q 2881 1984 2565 2268 
Q 2250 2553 1709 2553 
Q 1456 2553 1204 2497 
Q 953 2441 691 2322 
L 691 4666 
z
" transform="scale(0.015625)"/>
       </defs>
       <use xlink:href="#DejaVuSans-32"/>
       <use xlink:href="#DejaVuSans-35" x="63.623047"/>
      </g>
     </g>
    </g>
    <g id="xtick_3">
     <g id="line2d_3">
      <g>
       <use xlink:href="#meec604794b" x="155.404221" y="307.584" style="stroke: #000000; stroke-width: 0.8"/>
      </g>
     </g>
     <g id="text_3">
      <!-- 50 -->
      <g transform="translate(149.041721 322.182437)scale(0.1 -0.1)">
       <use xlink:href="#DejaVuSans-35"/>
       <use xlink:href="#DejaVuSans-30" x="63.623047"/>
      </g>
     </g>
    </g>
    <g id="xtick_4">
     <g id="line2d_4">
      <g>
       <use xlink:href="#meec604794b" x="196.189968" y="307.584" style="stroke: #000000; stroke-width: 0.8"/>
      </g>
     </g>
     <g id="text_4">
      <!-- 75 -->
      <g transform="translate(189.827468 322.182437)scale(0.1 -0.1)">
       <defs>
        <path id="DejaVuSans-37" d="M 525 4666 
L 3525 4666 
L 3525 4397 
L 1831 0 
L 1172 0 
L 2766 4134 
L 525 4134 
L 525 4666 
z
" transform="scale(0.015625)"/>
       </defs>
       <use xlink:href="#DejaVuSans-37"/>
       <use xlink:href="#DejaVuSans-35" x="63.623047"/>
      </g>
     </g>
    </g>
    <g id="xtick_5">
     <g id="line2d_5">
      <g>
       <use xlink:href="#meec604794b" x="236.975715" y="307.584" style="stroke: #000000; stroke-width: 0.8"/>
      </g>
     </g>
     <g id="text_5">
      <!-- 100 -->
      <g transform="translate(227.431965 322.182437)scale(0.1 -0.1)">
       <defs>
        <path id="DejaVuSans-31" d="M 794 531 
L 1825 531 
L 1825 4091 
L 703 3866 
L 703 4441 
L 1819 4666 
L 2450 4666 
L 2450 531 
L 3481 531 
L 3481 0 
L 794 0 
L 794 531 
z
" transform="scale(0.015625)"/>
       </defs>
       <use xlink:href="#DejaVuSans-31"/>
       <use xlink:href="#DejaVuSans-30" x="63.623047"/>
       <use xlink:href="#DejaVuSans-30" x="127.246094"/>
      </g>
     </g>
    </g>
    <g id="xtick_6">
     <g id="line2d_6">
      <g>
       <use xlink:href="#meec604794b" x="277.761462" y="307.584" style="stroke: #000000; stroke-width: 0.8"/>
      </g>
     </g>
     <g id="text_6">
      <!-- 125 -->
      <g transform="translate(268.217712 322.182437)scale(0.1 -0.1)">
       <use xlink:href="#DejaVuSans-31"/>
       <use xlink:href="#DejaVuSans-32" x="63.623047"/>
       <use xlink:href="#DejaVuSans-35" x="127.246094"/>
      </g>
     </g>
    </g>
    <g id="xtick_7">
     <g id="line2d_7">
      <g>
       <use xlink:href="#meec604794b" x="318.547209" y="307.584" style="stroke: #000000; stroke-width: 0.8"/>
      </g>
     </g>
     <g id="text_7">
      <!-- 150 -->
      <g transform="translate(309.003459 322.182437)scale(0.1 -0.1)">
       <use xlink:href="#DejaVuSans-31"/>
       <use xlink:href="#DejaVuSans-35" x="63.623047"/>
       <use xlink:href="#DejaVuSans-30" x="127.246094"/>
      </g>
     </g>
    </g>
    <g id="xtick_8">
     <g id="line2d_8">
      <g>
       <use xlink:href="#meec604794b" x="359.332956" y="307.584" style="stroke: #000000; stroke-width: 0.8"/>
      </g>
     </g>
     <g id="text_8">
      <!-- 175 -->
      <g transform="translate(349.789206 322.182437)scale(0.1 -0.1)">
       <use xlink:href="#DejaVuSans-31"/>
       <use xlink:href="#DejaVuSans-37" x="63.623047"/>
       <use xlink:href="#DejaVuSans-35" x="127.246094"/>
      </g>
     </g>
    </g>
    <g id="xtick_9">
     <g id="line2d_9">
      <g>
       <use xlink:href="#meec604794b" x="400.118703" y="307.584" style="stroke: #000000; stroke-width: 0.8"/>
      </g>
     </g>
     <g id="text_9">
      <!-- 200 -->
      <g transform="translate(390.574953 322.182437)scale(0.1 -0.1)">
       <use xlink:href="#DejaVuSans-32"/>
       <use xlink:href="#DejaVuSans-30" x="63.623047"/>
       <use xlink:href="#DejaVuSans-30" x="127.246094"/>
      </g>
     </g>
    </g>
    <g id="text_10">
     <!-- epoch -->
     <g transform="translate(220.931875 335.860562)scale(0.1 -0.1)">
      <defs>
       <path id="DejaVuSans-65" d="M 3597 1894 
L 3597 1613 
L 953 1613 
Q 991 1019 1311 708 
Q 1631 397 2203 397 
Q 2534 397 2845 478 
Q 3156 559 3463 722 
L 3463 178 
Q 3153 47 2828 -22 
Q 2503 -91 2169 -91 
Q 1331 -91 842 396 
Q 353 884 353 1716 
Q 353 2575 817 3079 
Q 1281 3584 2069 3584 
Q 2775 3584 3186 3129 
Q 3597 2675 3597 1894 
z
M 3022 2063 
Q 3016 2534 2758 2815 
Q 2500 3097 2075 3097 
Q 1594 3097 1305 2825 
Q 1016 2553 972 2059 
L 3022 2063 
z
" transform="scale(0.015625)"/>
       <path id="DejaVuSans-70" d="M 1159 525 
L 1159 -1331 
L 581 -1331 
L 581 3500 
L 1159 3500 
L 1159 2969 
Q 1341 3281 1617 3432 
Q 1894 3584 2278 3584 
Q 2916 3584 3314 3078 
Q 3713 2572 3713 1747 
Q 3713 922 3314 415 
Q 2916 -91 2278 -91 
Q 1894 -91 1617 61 
Q 1341 213 1159 525 
z
M 3116 1747 
Q 3116 2381 2855 2742 
Q 2594 3103 2138 3103 
Q 1681 3103 1420 2742 
Q 1159 2381 1159 1747 
Q 1159 1113 1420 752 
Q 1681 391 2138 391 
Q 2594 391 2855 752 
Q 3116 1113 3116 1747 
z
" transform="scale(0.015625)"/>
       <path id="DejaVuSans-6f" d="M 1959 3097 
Q 1497 3097 1228 2736 
Q 959 2375 959 1747 
Q 959 1119 1226 758 
Q 1494 397 1959 397 
Q 2419 397 2687 759 
Q 2956 1122 2956 1747 
Q 2956 2369 2687 2733 
Q 2419 3097 1959 3097 
z
M 1959 3584 
Q 2709 3584 3137 3096 
Q 3566 2609 3566 1747 
Q 3566 888 3137 398 
Q 2709 -91 1959 -91 
Q 1206 -91 779 398 
Q 353 888 353 1747 
Q 353 2609 779 3096 
Q 1206 3584 1959 3584 
z
" transform="scale(0.015625)"/>
       <path id="DejaVuSans-63" d="M 3122 3366 
L 3122 2828 
Q 2878 2963 2633 3030 
Q 2388 3097 2138 3097 
Q 1578 3097 1268 2742 
Q 959 2388 959 1747 
Q 959 1106 1268 751 
Q 1578 397 2138 397 
Q 2388 397 2633 464 
Q 2878 531 3122 666 
L 3122 134 
Q 2881 22 2623 -34 
Q 2366 -91 2075 -91 
Q 1284 -91 818 406 
Q 353 903 353 1747 
Q 353 2603 823 3093 
Q 1294 3584 2113 3584 
Q 2378 3584 2631 3529 
Q 2884 3475 3122 3366 
z
" transform="scale(0.015625)"/>
       <path id="DejaVuSans-68" d="M 3513 2113 
L 3513 0 
L 2938 0 
L 2938 2094 
Q 2938 2591 2744 2837 
Q 2550 3084 2163 3084 
Q 1697 3084 1428 2787 
Q 1159 2491 1159 1978 
L 1159 0 
L 581 0 
L 581 4863 
L 1159 4863 
L 1159 2956 
Q 1366 3272 1645 3428 
Q 1925 3584 2291 3584 
Q 2894 3584 3203 3211 
Q 3513 2838 3513 2113 
z
" transform="scale(0.015625)"/>
      </defs>
      <use xlink:href="#DejaVuSans-65"/>
      <use xlink:href="#DejaVuSans-70" x="61.523438"/>
      <use xlink:href="#DejaVuSans-6f" x="125"/>
      <use xlink:href="#DejaVuSans-63" x="186.181641"/>
      <use xlink:href="#DejaVuSans-68" x="241.162109"/>
     </g>
    </g>
   </g>
   <g id="matplotlib.axis_2">
    <g id="ytick_1">
     <g id="line2d_10">
      <defs>
       <path id="mb9b6f95993" d="M 0 0 
L -3.5 0 
" style="stroke: #000000; stroke-width: 0.8"/>
      </defs>
      <g>
       <use xlink:href="#mb9b6f95993" x="57.6" y="294.276491" style="stroke: #000000; stroke-width: 0.8"/>
      </g>
     </g>
     <g id="text_11">
      <!-- 1.0 -->
      <g transform="translate(34.696875 298.075709)scale(0.1 -0.1)">
       <defs>
        <path id="DejaVuSans-2e" d="M 684 794 
L 1344 794 
L 1344 0 
L 684 0 
L 684 794 
z
" transform="scale(0.015625)"/>
       </defs>
       <use xlink:href="#DejaVuSans-31"/>
       <use xlink:href="#DejaVuSans-2e" x="63.623047"/>
       <use xlink:href="#DejaVuSans-30" x="95.410156"/>
      </g>
     </g>
    </g>
    <g id="ytick_2">
     <g id="line2d_11">
      <g>
       <use xlink:href="#mb9b6f95993" x="57.6" y="244.081569" style="stroke: #000000; stroke-width: 0.8"/>
      </g>
     </g>
     <g id="text_12">
      <!-- 1.5 -->
      <g transform="translate(34.696875 247.880788)scale(0.1 -0.1)">
       <use xlink:href="#DejaVuSans-31"/>
       <use xlink:href="#DejaVuSans-2e" x="63.623047"/>
       <use xlink:href="#DejaVuSans-35" x="95.410156"/>
      </g>
     </g>
    </g>
    <g id="ytick_3">
     <g id="line2d_12">
      <g>
       <use xlink:href="#mb9b6f95993" x="57.6" y="193.886647" style="stroke: #000000; stroke-width: 0.8"/>
      </g>
     </g>
     <g id="text_13">
      <!-- 2.0 -->
      <g transform="translate(34.696875 197.685866)scale(0.1 -0.1)">
       <use xlink:href="#DejaVuSans-32"/>
       <use xlink:href="#DejaVuSans-2e" x="63.623047"/>
       <use xlink:href="#DejaVuSans-30" x="95.410156"/>
      </g>
     </g>
    </g>
    <g id="ytick_4">
     <g id="line2d_13">
      <g>
       <use xlink:href="#mb9b6f95993" x="57.6" y="143.691726" style="stroke: #000000; stroke-width: 0.8"/>
      </g>
     </g>
     <g id="text_14">
      <!-- 2.5 -->
      <g transform="translate(34.696875 147.490945)scale(0.1 -0.1)">
       <use xlink:href="#DejaVuSans-32"/>
       <use xlink:href="#DejaVuSans-2e" x="63.623047"/>
       <use xlink:href="#DejaVuSans-35" x="95.410156"/>
      </g>
     </g>
    </g>
    <g id="ytick_5">
     <g id="line2d_14">
      <g>
       <use xlink:href="#mb9b6f95993" x="57.6" y="93.496804" style="stroke: #000000; stroke-width: 0.8"/>
      </g>
     </g>
     <g id="text_15">
      <!-- 3.0 -->
      <g transform="translate(34.696875 97.296023)scale(0.1 -0.1)">
       <defs>
        <path id="DejaVuSans-33" d="M 2597 2516 
Q 3050 2419 3304 2112 
Q 3559 1806 3559 1356 
Q 3559 666 3084 287 
Q 2609 -91 1734 -91 
Q 1441 -91 1130 -33 
Q 819 25 488 141 
L 488 750 
Q 750 597 1062 519 
Q 1375 441 1716 441 
Q 2309 441 2620 675 
Q 2931 909 2931 1356 
Q 2931 1769 2642 2001 
Q 2353 2234 1838 2234 
L 1294 2234 
L 1294 2753 
L 1863 2753 
Q 2328 2753 2575 2939 
Q 2822 3125 2822 3475 
Q 2822 3834 2567 4026 
Q 2313 4219 1838 4219 
Q 1578 4219 1281 4162 
Q 984 4106 628 3988 
L 628 4550 
Q 988 4650 1302 4700 
Q 1616 4750 1894 4750 
Q 2613 4750 3031 4423 
Q 3450 4097 3450 3541 
Q 3450 3153 3228 2886 
Q 3006 2619 2597 2516 
z
" transform="scale(0.015625)"/>
       </defs>
       <use xlink:href="#DejaVuSans-33"/>
       <use xlink:href="#DejaVuSans-2e" x="63.623047"/>
       <use xlink:href="#DejaVuSans-30" x="95.410156"/>
      </g>
     </g>
    </g>
    <g id="ytick_6">
     <g id="line2d_15">
      <g>
       <use xlink:href="#mb9b6f95993" x="57.6" y="43.301883" style="stroke: #000000; stroke-width: 0.8"/>
      </g>
     </g>
     <g id="text_16">
      <!-- 3.5 -->
      <g transform="translate(34.696875 47.101101)scale(0.1 -0.1)">
       <use xlink:href="#DejaVuSans-33"/>
       <use xlink:href="#DejaVuSans-2e" x="63.623047"/>
       <use xlink:href="#DejaVuSans-35" x="95.410156"/>
      </g>
     </g>
    </g>
    <g id="text_17">
     <!-- loss -->
     <g transform="translate(28.617188 184.185812)rotate(-90)scale(0.1 -0.1)">
      <defs>
       <path id="DejaVuSans-6c" d="M 603 4863 
L 1178 4863 
L 1178 0 
L 603 0 
L 603 4863 
z
" transform="scale(0.015625)"/>
       <path id="DejaVuSans-73" d="M 2834 3397 
L 2834 2853 
Q 2591 2978 2328 3040 
Q 2066 3103 1784 3103 
Q 1356 3103 1142 2972 
Q 928 2841 928 2578 
Q 928 2378 1081 2264 
Q 1234 2150 1697 2047 
L 1894 2003 
Q 2506 1872 2764 1633 
Q 3022 1394 3022 966 
Q 3022 478 2636 193 
Q 2250 -91 1575 -91 
Q 1294 -91 989 -36 
Q 684 19 347 128 
L 347 722 
Q 666 556 975 473 
Q 1284 391 1588 391 
Q 1994 391 2212 530 
Q 2431 669 2431 922 
Q 2431 1156 2273 1281 
Q 2116 1406 1581 1522 
L 1381 1569 
Q 847 1681 609 1914 
Q 372 2147 372 2553 
Q 372 3047 722 3315 
Q 1072 3584 1716 3584 
Q 2034 3584 2315 3537 
Q 2597 3491 2834 3397 
z
" transform="scale(0.015625)"/>
      </defs>
      <use xlink:href="#DejaVuSans-6c"/>
      <use xlink:href="#DejaVuSans-6f" x="27.783203"/>
      <use xlink:href="#DejaVuSans-73" x="88.964844"/>
      <use xlink:href="#DejaVuSans-73" x="141.064453"/>
     </g>
    </g>
   </g>
   <g id="line2d_16">
    <path d="M 73.832727 53.568 
L 75.464157 69.287182 
L 77.095587 90.6736 
L 78.727017 106.700291 
L 80.358447 115.894885 
L 81.989877 122.32699 
L 83.621307 129.567878 
L 85.252736 132.982313 
L 86.884166 138.654267 
L 90.147026 152.324853 
L 91.778456 157.335891 
L 93.409886 159.75313 
L 95.041316 164.764749 
L 96.672746 166.82108 
L 98.304175 170.958651 
L 99.935605 176.672417 
L 101.567035 179.336784 
L 103.198465 183.040008 
L 106.461325 188.123859 
L 108.092755 191.28667 
L 109.724185 194.929297 
L 111.355614 196.45703 
L 112.987044 198.494513 
L 114.618474 199.541545 
L 116.249904 201.669498 
L 117.881334 205.855966 
L 119.512764 208.30272 
L 121.144194 209.343451 
L 122.775624 208.947728 
L 124.407053 212.134044 
L 126.038483 214.864019 
L 127.669913 216.555653 
L 132.564203 220.385825 
L 134.195633 221.240162 
L 135.827063 225.3292 
L 137.458492 224.921209 
L 139.089922 227.324236 
L 140.721352 227.991993 
L 142.352782 231.163825 
L 143.984212 229.782057 
L 145.615642 230.164356 
L 147.247072 233.117793 
L 150.509931 234.63296 
L 152.141361 236.045843 
L 153.772791 236.393607 
L 155.404221 237.050945 
L 157.035651 239.553094 
L 158.667081 239.498368 
L 160.298511 241.039558 
L 161.929941 241.59238 
L 163.56137 242.443605 
L 165.1928 242.852911 
L 166.82423 245.237629 
L 168.45566 246.711618 
L 170.08709 247.906807 
L 171.71852 246.985582 
L 173.34995 249.890243 
L 174.98138 252.527208 
L 176.61281 246.600908 
L 178.244239 251.876135 
L 179.875669 251.037868 
L 181.507099 252.087248 
L 183.138529 254.350401 
L 184.769959 253.354569 
L 186.401389 256.068917 
L 188.032819 255.759396 
L 189.664249 255.810556 
L 192.927108 259.208823 
L 194.558538 258.997849 
L 196.189968 259.200828 
L 197.821398 259.534884 
L 199.452828 259.226859 
L 201.084258 259.862937 
L 202.715688 260.175826 
L 204.347117 264.145137 
L 205.978547 262.706326 
L 207.609977 261.035055 
L 209.241407 263.131213 
L 210.872837 264.646051 
L 212.504267 264.021931 
L 214.135697 264.580334 
L 215.767127 264.369163 
L 217.398556 263.93383 
L 219.029986 270.075961 
L 220.661416 266.141112 
L 222.292846 268.279891 
L 223.924276 268.416447 
L 225.555706 268.976907 
L 227.187136 266.698453 
L 228.818566 267.759044 
L 230.449995 272.666524 
L 232.081425 270.203153 
L 233.712855 272.391869 
L 235.344285 271.000069 
L 236.975715 271.741869 
L 238.607145 273.09414 
L 240.238575 272.199464 
L 241.870005 269.545859 
L 243.501434 272.595643 
L 245.132864 271.396935 
L 246.764294 272.852104 
L 248.395724 276.329615 
L 250.027154 273.370252 
L 251.658584 272.47475 
L 253.290014 278.031903 
L 254.921444 276.333265 
L 256.552873 275.934315 
L 258.184303 276.723339 
L 259.815733 275.329502 
L 261.447163 274.937667 
L 263.078593 279.778209 
L 264.710023 278.946945 
L 266.341453 277.883977 
L 267.972883 275.240255 
L 269.604312 277.623555 
L 271.235742 278.671107 
L 272.867172 281.431418 
L 274.498602 277.209177 
L 276.130032 276.71023 
L 277.761462 281.848648 
L 279.392892 281.137442 
L 281.024322 279.125002 
L 282.655751 281.477193 
L 284.287181 280.708061 
L 285.918611 283.948226 
L 287.550041 278.7098 
L 289.181471 280.320827 
L 294.075761 283.686988 
L 295.70719 282.821668 
L 297.33862 282.918583 
L 298.97005 279.989266 
L 300.60148 282.345921 
L 302.23291 285.061832 
L 303.86434 285.30662 
L 305.49577 284.293118 
L 307.1272 282.730109 
L 308.75863 279.547311 
L 310.390059 287.291254 
L 312.021489 286.519524 
L 313.652919 285.472254 
L 315.284349 285.639939 
L 318.547209 286.336399 
L 320.178639 286.661764 
L 321.810069 285.438245 
L 323.441498 287.871592 
L 325.072928 287.597967 
L 326.704358 288.146071 
L 328.335788 285.662078 
L 329.967218 288.309926 
L 334.861508 285.149552 
L 336.492937 287.058387 
L 338.124367 290.999978 
L 339.755797 287.001963 
L 341.387227 288.583637 
L 343.018657 287.385525 
L 344.650087 289.464451 
L 346.281517 287.276073 
L 347.912947 288.435697 
L 349.544376 287.308252 
L 351.175806 289.313 
L 352.807236 285.066983 
L 354.438666 286.791202 
L 356.070096 289.652789 
L 357.701526 290.051192 
L 359.332956 288.299888 
L 360.964386 289.495932 
L 362.595815 291.950753 
L 364.227245 289.239479 
L 367.490105 290.952164 
L 369.121535 295.173537 
L 370.752965 290.059793 
L 372.384395 290.389441 
L 374.015825 290.030808 
L 375.647254 293.04862 
L 377.278684 291.828408 
L 378.910114 291.29552 
L 380.541544 290.909962 
L 382.172974 294.589698 
L 383.804404 291.183541 
L 385.435834 293.471526 
L 387.067264 292.277454 
L 388.698693 294.475174 
L 390.330123 294.142919 
L 391.961553 290.45673 
L 393.592983 295.488 
L 395.224413 293.425444 
L 396.855843 293.529031 
L 398.487273 293.286862 
L 398.487273 293.286862 
" clip-path="url(#p9935758d96)" style="fill: none; stroke: #ff0000; stroke-width: 1.5; stroke-linecap: square"/>
   </g>
   <g id="line2d_17">
    <path d="M 73.832727 57.012218 
L 75.464157 89.15819 
L 77.095587 115.399562 
L 78.727017 117.176366 
L 80.358447 127.573407 
L 81.989877 140.667512 
L 83.621307 133.180075 
L 85.252736 145.375218 
L 86.884166 156.097373 
L 88.515596 160.541362 
L 90.147026 155.194091 
L 91.778456 161.687201 
L 93.409886 167.246316 
L 95.041316 177.186324 
L 96.672746 175.808483 
L 98.304175 182.641909 
L 99.935605 183.989452 
L 101.567035 183.359775 
L 103.198465 186.965554 
L 104.829895 190.12967 
L 106.461325 190.59998 
L 108.092755 196.495438 
L 109.724185 193.266418 
L 111.355614 199.312545 
L 112.987044 197.960619 
L 114.618474 195.350171 
L 116.249904 198.146729 
L 117.881334 199.978322 
L 119.512764 202.890375 
L 121.144194 194.073777 
L 122.775624 198.439257 
L 124.407053 197.76335 
L 126.038483 203.507648 
L 127.669913 201.176265 
L 129.301343 198.118917 
L 130.932773 196.758579 
L 132.564203 201.090602 
L 134.195633 193.679323 
L 135.827063 195.277167 
L 137.458492 201.855023 
L 139.089922 199.704311 
L 140.721352 199.326674 
L 142.352782 205.258786 
L 143.984212 200.438021 
L 145.615642 208.11092 
L 147.247072 203.695717 
L 148.878502 194.245786 
L 150.509931 199.955284 
L 152.141361 199.351095 
L 153.772791 201.558614 
L 155.404221 197.862211 
L 157.035651 199.757078 
L 158.667081 196.386327 
L 160.298511 200.143187 
L 161.929941 184.415613 
L 163.56137 197.684738 
L 165.1928 194.061874 
L 166.82423 195.515373 
L 168.45566 199.722488 
L 170.08709 190.263959 
L 171.71852 183.719994 
L 173.34995 196.071792 
L 174.98138 191.816469 
L 176.61281 193.505744 
L 179.875669 188.445077 
L 181.507099 195.345821 
L 183.138529 197.466123 
L 184.769959 196.482949 
L 186.401389 194.946996 
L 188.032819 182.57598 
L 189.664249 189.643282 
L 191.295678 191.280734 
L 192.927108 182.240271 
L 194.558538 185.094657 
L 196.189968 191.223359 
L 197.821398 195.531203 
L 199.452828 176.308615 
L 201.084258 187.22362 
L 202.715688 186.706636 
L 204.347117 184.287768 
L 205.978547 184.343709 
L 207.609977 187.470321 
L 210.872837 181.198116 
L 212.504267 185.254514 
L 214.135697 168.348515 
L 215.767127 179.34617 
L 217.398556 174.575231 
L 219.029986 180.527549 
L 220.661416 176.153141 
L 222.292846 184.336497 
L 223.924276 183.266114 
L 225.555706 179.673382 
L 227.187136 182.449342 
L 228.818566 179.763307 
L 230.449995 171.446424 
L 232.081425 179.586246 
L 233.712855 176.249562 
L 235.344285 180.931008 
L 236.975715 167.437481 
L 238.607145 183.00916 
L 240.238575 183.16247 
L 241.870005 182.687461 
L 243.501434 170.323624 
L 245.132864 177.889903 
L 246.764294 165.370742 
L 248.395724 172.298613 
L 250.027154 170.702202 
L 251.658584 179.936575 
L 253.290014 170.140692 
L 254.921444 164.562172 
L 256.552873 175.532784 
L 258.184303 162.122759 
L 259.815733 163.077756 
L 261.447163 167.663596 
L 263.078593 164.94859 
L 264.710023 173.669146 
L 266.341453 156.140795 
L 267.972883 167.78953 
L 269.604312 170.447139 
L 271.235742 157.667549 
L 272.867172 159.739916 
L 274.498602 177.278234 
L 276.130032 158.364151 
L 277.761462 166.638589 
L 279.392892 167.521876 
L 281.024322 166.442747 
L 282.655751 151.219528 
L 284.287181 158.281737 
L 285.918611 169.112975 
L 287.550041 168.181216 
L 289.181471 162.504393 
L 290.812901 164.084864 
L 292.444331 159.860522 
L 294.075761 166.268627 
L 295.70719 147.730211 
L 297.33862 165.110782 
L 298.97005 161.59222 
L 300.60148 149.799154 
L 302.23291 153.038768 
L 303.86434 144.814072 
L 305.49577 143.583568 
L 307.1272 165.476893 
L 308.75863 164.664932 
L 310.390059 147.477409 
L 312.021489 157.307894 
L 313.652919 164.581341 
L 315.284349 152.514162 
L 316.915779 159.476784 
L 318.547209 144.405568 
L 320.178639 157.262448 
L 321.810069 149.875083 
L 323.441498 159.531608 
L 325.072928 136.960027 
L 326.704358 139.399965 
L 328.335788 158.81849 
L 329.967218 148.627919 
L 331.598648 153.994677 
L 333.230078 151.47733 
L 334.861508 146.971945 
L 336.492937 160.237947 
L 338.124367 140.574034 
L 339.755797 157.926453 
L 341.387227 153.143855 
L 343.018657 157.879794 
L 344.650087 160.775049 
L 346.281517 149.675288 
L 347.912947 145.199789 
L 349.544376 161.540968 
L 351.175806 153.212432 
L 352.807236 151.272575 
L 354.438666 150.396862 
L 356.070096 156.599259 
L 357.701526 156.108041 
L 359.332956 151.488255 
L 360.964386 143.455649 
L 362.595815 147.396525 
L 364.227245 150.497314 
L 365.858675 151.76965 
L 367.490105 141.295603 
L 369.121535 131.611499 
L 370.752965 154.722131 
L 372.384395 145.446939 
L 374.015825 155.023426 
L 375.647254 145.517223 
L 377.278684 153.385956 
L 378.910114 152.62652 
L 380.541544 138.888827 
L 382.172974 127.440454 
L 383.804404 145.389099 
L 385.435834 143.793881 
L 387.067264 146.642094 
L 388.698693 144.955717 
L 390.330123 135.201843 
L 391.961553 147.247792 
L 393.592983 133.362201 
L 395.224413 153.937334 
L 396.855843 154.20086 
L 398.487273 139.165803 
L 398.487273 139.165803 
" clip-path="url(#p9935758d96)" style="fill: none; stroke: #008000; stroke-width: 1.5; stroke-linecap: square"/>
   </g>
   <g id="patch_3">
    <path d="M 57.6 307.584 
L 57.6 41.472 
" style="fill: none; stroke: #000000; stroke-width: 0.8; stroke-linejoin: miter; stroke-linecap: square"/>
   </g>
   <g id="patch_4">
    <path d="M 414.72 307.584 
L 414.72 41.472 
" style="fill: none; stroke: #000000; stroke-width: 0.8; stroke-linejoin: miter; stroke-linecap: square"/>
   </g>
   <g id="patch_5">
    <path d="M 57.6 307.584 
L 414.72 307.584 
" style="fill: none; stroke: #000000; stroke-width: 0.8; stroke-linejoin: miter; stroke-linecap: square"/>
   </g>
   <g id="patch_6">
    <path d="M 57.6 41.472 
L 414.72 41.472 
" style="fill: none; stroke: #000000; stroke-width: 0.8; stroke-linejoin: miter; stroke-linecap: square"/>
   </g>
   <g id="text_18">
    <!-- Training and validation loss &amp; topk accuracy -->
    <g transform="translate(103.572188 35.472)scale(0.12 -0.12)">
     <defs>
      <path id="DejaVuSans-54" d="M -19 4666 
L 3928 4666 
L 3928 4134 
L 2272 4134 
L 2272 0 
L 1638 0 
L 1638 4134 
L -19 4134 
L -19 4666 
z
" transform="scale(0.015625)"/>
      <path id="DejaVuSans-72" d="M 2631 2963 
Q 2534 3019 2420 3045 
Q 2306 3072 2169 3072 
Q 1681 3072 1420 2755 
Q 1159 2438 1159 1844 
L 1159 0 
L 581 0 
L 581 3500 
L 1159 3500 
L 1159 2956 
Q 1341 3275 1631 3429 
Q 1922 3584 2338 3584 
Q 2397 3584 2469 3576 
Q 2541 3569 2628 3553 
L 2631 2963 
z
" transform="scale(0.015625)"/>
      <path id="DejaVuSans-61" d="M 2194 1759 
Q 1497 1759 1228 1600 
Q 959 1441 959 1056 
Q 959 750 1161 570 
Q 1363 391 1709 391 
Q 2188 391 2477 730 
Q 2766 1069 2766 1631 
L 2766 1759 
L 2194 1759 
z
M 3341 1997 
L 3341 0 
L 2766 0 
L 2766 531 
Q 2569 213 2275 61 
Q 1981 -91 1556 -91 
Q 1019 -91 701 211 
Q 384 513 384 1019 
Q 384 1609 779 1909 
Q 1175 2209 1959 2209 
L 2766 2209 
L 2766 2266 
Q 2766 2663 2505 2880 
Q 2244 3097 1772 3097 
Q 1472 3097 1187 3025 
Q 903 2953 641 2809 
L 641 3341 
Q 956 3463 1253 3523 
Q 1550 3584 1831 3584 
Q 2591 3584 2966 3190 
Q 3341 2797 3341 1997 
z
" transform="scale(0.015625)"/>
      <path id="DejaVuSans-69" d="M 603 3500 
L 1178 3500 
L 1178 0 
L 603 0 
L 603 3500 
z
M 603 4863 
L 1178 4863 
L 1178 4134 
L 603 4134 
L 603 4863 
z
" transform="scale(0.015625)"/>
      <path id="DejaVuSans-6e" d="M 3513 2113 
L 3513 0 
L 2938 0 
L 2938 2094 
Q 2938 2591 2744 2837 
Q 2550 3084 2163 3084 
Q 1697 3084 1428 2787 
Q 1159 2491 1159 1978 
L 1159 0 
L 581 0 
L 581 3500 
L 1159 3500 
L 1159 2956 
Q 1366 3272 1645 3428 
Q 1925 3584 2291 3584 
Q 2894 3584 3203 3211 
Q 3513 2838 3513 2113 
z
" transform="scale(0.015625)"/>
      <path id="DejaVuSans-67" d="M 2906 1791 
Q 2906 2416 2648 2759 
Q 2391 3103 1925 3103 
Q 1463 3103 1205 2759 
Q 947 2416 947 1791 
Q 947 1169 1205 825 
Q 1463 481 1925 481 
Q 2391 481 2648 825 
Q 2906 1169 2906 1791 
z
M 3481 434 
Q 3481 -459 3084 -895 
Q 2688 -1331 1869 -1331 
Q 1566 -1331 1297 -1286 
Q 1028 -1241 775 -1147 
L 775 -588 
Q 1028 -725 1275 -790 
Q 1522 -856 1778 -856 
Q 2344 -856 2625 -561 
Q 2906 -266 2906 331 
L 2906 616 
Q 2728 306 2450 153 
Q 2172 0 1784 0 
Q 1141 0 747 490 
Q 353 981 353 1791 
Q 353 2603 747 3093 
Q 1141 3584 1784 3584 
Q 2172 3584 2450 3431 
Q 2728 3278 2906 2969 
L 2906 3500 
L 3481 3500 
L 3481 434 
z
" transform="scale(0.015625)"/>
      <path id="DejaVuSans-20" transform="scale(0.015625)"/>
      <path id="DejaVuSans-64" d="M 2906 2969 
L 2906 4863 
L 3481 4863 
L 3481 0 
L 2906 0 
L 2906 525 
Q 2725 213 2448 61 
Q 2172 -91 1784 -91 
Q 1150 -91 751 415 
Q 353 922 353 1747 
Q 353 2572 751 3078 
Q 1150 3584 1784 3584 
Q 2172 3584 2448 3432 
Q 2725 3281 2906 2969 
z
M 947 1747 
Q 947 1113 1208 752 
Q 1469 391 1925 391 
Q 2381 391 2643 752 
Q 2906 1113 2906 1747 
Q 2906 2381 2643 2742 
Q 2381 3103 1925 3103 
Q 1469 3103 1208 2742 
Q 947 2381 947 1747 
z
" transform="scale(0.015625)"/>
      <path id="DejaVuSans-76" d="M 191 3500 
L 800 3500 
L 1894 563 
L 2988 3500 
L 3597 3500 
L 2284 0 
L 1503 0 
L 191 3500 
z
" transform="scale(0.015625)"/>
      <path id="DejaVuSans-74" d="M 1172 4494 
L 1172 3500 
L 2356 3500 
L 2356 3053 
L 1172 3053 
L 1172 1153 
Q 1172 725 1289 603 
Q 1406 481 1766 481 
L 2356 481 
L 2356 0 
L 1766 0 
Q 1100 0 847 248 
Q 594 497 594 1153 
L 594 3053 
L 172 3053 
L 172 3500 
L 594 3500 
L 594 4494 
L 1172 4494 
z
" transform="scale(0.015625)"/>
      <path id="DejaVuSans-26" d="M 1556 2509 
Q 1272 2256 1139 2004 
Q 1006 1753 1006 1478 
Q 1006 1022 1337 719 
Q 1669 416 2169 416 
Q 2466 416 2725 514 
Q 2984 613 3213 813 
L 1556 2509 
z
M 1997 2859 
L 3584 1234 
Q 3769 1513 3872 1830 
Q 3975 2147 3994 2503 
L 4575 2503 
Q 4538 2091 4375 1687 
Q 4213 1284 3922 891 
L 4794 0 
L 4006 0 
L 3559 459 
Q 3234 181 2878 45 
Q 2522 -91 2113 -91 
Q 1359 -91 881 339 
Q 403 769 403 1441 
Q 403 1841 612 2192 
Q 822 2544 1241 2853 
Q 1091 3050 1012 3245 
Q 934 3441 934 3628 
Q 934 4134 1281 4442 
Q 1628 4750 2203 4750 
Q 2463 4750 2720 4694 
Q 2978 4638 3244 4525 
L 3244 3956 
Q 2972 4103 2725 4179 
Q 2478 4256 2266 4256 
Q 1938 4256 1733 4082 
Q 1528 3909 1528 3634 
Q 1528 3475 1620 3314 
Q 1713 3153 1997 2859 
z
" transform="scale(0.015625)"/>
      <path id="DejaVuSans-6b" d="M 581 4863 
L 1159 4863 
L 1159 1991 
L 2875 3500 
L 3609 3500 
L 1753 1863 
L 3688 0 
L 2938 0 
L 1159 1709 
L 1159 0 
L 581 0 
L 581 4863 
z
" transform="scale(0.015625)"/>
      <path id="DejaVuSans-75" d="M 544 1381 
L 544 3500 
L 1119 3500 
L 1119 1403 
Q 1119 906 1312 657 
Q 1506 409 1894 409 
Q 2359 409 2629 706 
Q 2900 1003 2900 1516 
L 2900 3500 
L 3475 3500 
L 3475 0 
L 2900 0 
L 2900 538 
Q 2691 219 2414 64 
Q 2138 -91 1772 -91 
Q 1169 -91 856 284 
Q 544 659 544 1381 
z
M 1991 3584 
L 1991 3584 
z
" transform="scale(0.015625)"/>
      <path id="DejaVuSans-79" d="M 2059 -325 
Q 1816 -950 1584 -1140 
Q 1353 -1331 966 -1331 
L 506 -1331 
L 506 -850 
L 844 -850 
Q 1081 -850 1212 -737 
Q 1344 -625 1503 -206 
L 1606 56 
L 191 3500 
L 800 3500 
L 1894 763 
L 2988 3500 
L 3597 3500 
L 2059 -325 
z
" transform="scale(0.015625)"/>
     </defs>
     <use xlink:href="#DejaVuSans-54"/>
     <use xlink:href="#DejaVuSans-72" x="46.333984"/>
     <use xlink:href="#DejaVuSans-61" x="87.447266"/>
     <use xlink:href="#DejaVuSans-69" x="148.726562"/>
     <use xlink:href="#DejaVuSans-6e" x="176.509766"/>
     <use xlink:href="#DejaVuSans-69" x="239.888672"/>
     <use xlink:href="#DejaVuSans-6e" x="267.671875"/>
     <use xlink:href="#DejaVuSans-67" x="331.050781"/>
     <use xlink:href="#DejaVuSans-20" x="394.527344"/>
     <use xlink:href="#DejaVuSans-61" x="426.314453"/>
     <use xlink:href="#DejaVuSans-6e" x="487.59375"/>
     <use xlink:href="#DejaVuSans-64" x="550.972656"/>
     <use xlink:href="#DejaVuSans-20" x="614.449219"/>
     <use xlink:href="#DejaVuSans-76" x="646.236328"/>
     <use xlink:href="#DejaVuSans-61" x="705.416016"/>
     <use xlink:href="#DejaVuSans-6c" x="766.695312"/>
     <use xlink:href="#DejaVuSans-69" x="794.478516"/>
     <use xlink:href="#DejaVuSans-64" x="822.261719"/>
     <use xlink:href="#DejaVuSans-61" x="885.738281"/>
     <use xlink:href="#DejaVuSans-74" x="947.017578"/>
     <use xlink:href="#DejaVuSans-69" x="986.226562"/>
     <use xlink:href="#DejaVuSans-6f" x="1014.009766"/>
     <use xlink:href="#DejaVuSans-6e" x="1075.191406"/>
     <use xlink:href="#DejaVuSans-20" x="1138.570312"/>
     <use xlink:href="#DejaVuSans-6c" x="1170.357422"/>
     <use xlink:href="#DejaVuSans-6f" x="1198.140625"/>
     <use xlink:href="#DejaVuSans-73" x="1259.322266"/>
     <use xlink:href="#DejaVuSans-73" x="1311.421875"/>
     <use xlink:href="#DejaVuSans-20" x="1363.521484"/>
     <use xlink:href="#DejaVuSans-26" x="1395.308594"/>
     <use xlink:href="#DejaVuSans-20" x="1473.287109"/>
     <use xlink:href="#DejaVuSans-74" x="1505.074219"/>
     <use xlink:href="#DejaVuSans-6f" x="1544.283203"/>
     <use xlink:href="#DejaVuSans-70" x="1605.464844"/>
     <use xlink:href="#DejaVuSans-6b" x="1668.941406"/>
     <use xlink:href="#DejaVuSans-20" x="1726.851562"/>
     <use xlink:href="#DejaVuSans-61" x="1758.638672"/>
     <use xlink:href="#DejaVuSans-63" x="1819.917969"/>
     <use xlink:href="#DejaVuSans-63" x="1874.898438"/>
     <use xlink:href="#DejaVuSans-75" x="1929.878906"/>
     <use xlink:href="#DejaVuSans-72" x="1993.257812"/>
     <use xlink:href="#DejaVuSans-61" x="2034.371094"/>
     <use xlink:href="#DejaVuSans-63" x="2095.650391"/>
     <use xlink:href="#DejaVuSans-79" x="2150.630859"/>
    </g>
   </g>
   <g id="legend_1">
    <g id="patch_7">
     <path d="M 303.991875 302.584 
L 407.72 302.584 
Q 409.72 302.584 409.72 300.584 
L 409.72 272.22775 
Q 409.72 270.22775 407.72 270.22775 
L 303.991875 270.22775 
Q 301.991875 270.22775 301.991875 272.22775 
L 301.991875 300.584 
Q 301.991875 302.584 303.991875 302.584 
z
" style="fill: #ffffff; opacity: 0.8; stroke: #cccccc; stroke-linejoin: miter"/>
    </g>
    <g id="line2d_18">
     <path d="M 305.991875 278.326187 
L 315.991875 278.326187 
L 325.991875 278.326187 
" style="fill: none; stroke: #ff0000; stroke-width: 1.5; stroke-linecap: square"/>
    </g>
    <g id="text_19">
     <!-- training loss -->
     <g transform="translate(333.991875 281.826187)scale(0.1 -0.1)">
      <use xlink:href="#DejaVuSans-74"/>
      <use xlink:href="#DejaVuSans-72" x="39.208984"/>
      <use xlink:href="#DejaVuSans-61" x="80.322266"/>
      <use xlink:href="#DejaVuSans-69" x="141.601562"/>
      <use xlink:href="#DejaVuSans-6e" x="169.384766"/>
      <use xlink:href="#DejaVuSans-69" x="232.763672"/>
      <use xlink:href="#DejaVuSans-6e" x="260.546875"/>
      <use xlink:href="#DejaVuSans-67" x="323.925781"/>
      <use xlink:href="#DejaVuSans-20" x="387.402344"/>
      <use xlink:href="#DejaVuSans-6c" x="419.189453"/>
      <use xlink:href="#DejaVuSans-6f" x="446.972656"/>
      <use xlink:href="#DejaVuSans-73" x="508.154297"/>
      <use xlink:href="#DejaVuSans-73" x="560.253906"/>
     </g>
    </g>
    <g id="line2d_19">
     <path d="M 305.991875 293.004312 
L 315.991875 293.004312 
L 325.991875 293.004312 
" style="fill: none; stroke: #008000; stroke-width: 1.5; stroke-linecap: square"/>
    </g>
    <g id="text_20">
     <!-- validation loss -->
     <g transform="translate(333.991875 296.504312)scale(0.1 -0.1)">
      <use xlink:href="#DejaVuSans-76"/>
      <use xlink:href="#DejaVuSans-61" x="59.179688"/>
      <use xlink:href="#DejaVuSans-6c" x="120.458984"/>
      <use xlink:href="#DejaVuSans-69" x="148.242188"/>
      <use xlink:href="#DejaVuSans-64" x="176.025391"/>
      <use xlink:href="#DejaVuSans-61" x="239.501953"/>
      <use xlink:href="#DejaVuSans-74" x="300.78125"/>
      <use xlink:href="#DejaVuSans-69" x="339.990234"/>
      <use xlink:href="#DejaVuSans-6f" x="367.773438"/>
      <use xlink:href="#DejaVuSans-6e" x="428.955078"/>
      <use xlink:href="#DejaVuSans-20" x="492.333984"/>
      <use xlink:href="#DejaVuSans-6c" x="524.121094"/>
      <use xlink:href="#DejaVuSans-6f" x="551.904297"/>
      <use xlink:href="#DejaVuSans-73" x="613.085938"/>
      <use xlink:href="#DejaVuSans-73" x="665.185547"/>
     </g>
    </g>
   </g>
  </g>
  <g id="axes_2">
   <g id="matplotlib.axis_3">
    <g id="ytick_7">
     <g id="line2d_20">
      <defs>
       <path id="m876ec1a1c7" d="M 0 0 
L 3.5 0 
" style="stroke: #000000; stroke-width: 0.8"/>
      </defs>
      <g>
       <use xlink:href="#m876ec1a1c7" x="414.72" y="273.915259" style="stroke: #000000; stroke-width: 0.8"/>
      </g>
     </g>
     <g id="text_21">
      <!-- 10 -->
      <g transform="translate(421.72 277.714478)scale(0.1 -0.1)">
       <use xlink:href="#DejaVuSans-31"/>
       <use xlink:href="#DejaVuSans-30" x="63.623047"/>
      </g>
     </g>
    </g>
    <g id="ytick_8">
     <g id="line2d_21">
      <g>
       <use xlink:href="#m876ec1a1c7" x="414.72" y="237.548244" style="stroke: #000000; stroke-width: 0.8"/>
      </g>
     </g>
     <g id="text_22">
      <!-- 20 -->
      <g transform="translate(421.72 241.347463)scale(0.1 -0.1)">
       <use xlink:href="#DejaVuSans-32"/>
       <use xlink:href="#DejaVuSans-30" x="63.623047"/>
      </g>
     </g>
    </g>
    <g id="ytick_9">
     <g id="line2d_22">
      <g>
       <use xlink:href="#m876ec1a1c7" x="414.72" y="201.181229" style="stroke: #000000; stroke-width: 0.8"/>
      </g>
     </g>
     <g id="text_23">
      <!-- 30 -->
      <g transform="translate(421.72 204.980448)scale(0.1 -0.1)">
       <use xlink:href="#DejaVuSans-33"/>
       <use xlink:href="#DejaVuSans-30" x="63.623047"/>
      </g>
     </g>
    </g>
    <g id="ytick_10">
     <g id="line2d_23">
      <g>
       <use xlink:href="#m876ec1a1c7" x="414.72" y="164.814214" style="stroke: #000000; stroke-width: 0.8"/>
      </g>
     </g>
     <g id="text_24">
      <!-- 40 -->
      <g transform="translate(421.72 168.613433)scale(0.1 -0.1)">
       <defs>
        <path id="DejaVuSans-34" d="M 2419 4116 
L 825 1625 
L 2419 1625 
L 2419 4116 
z
M 2253 4666 
L 3047 4666 
L 3047 1625 
L 3713 1625 
L 3713 1100 
L 3047 1100 
L 3047 0 
L 2419 0 
L 2419 1100 
L 313 1100 
L 313 1709 
L 2253 4666 
z
" transform="scale(0.015625)"/>
       </defs>
       <use xlink:href="#DejaVuSans-34"/>
       <use xlink:href="#DejaVuSans-30" x="63.623047"/>
      </g>
     </g>
    </g>
    <g id="ytick_11">
     <g id="line2d_24">
      <g>
       <use xlink:href="#m876ec1a1c7" x="414.72" y="128.447199" style="stroke: #000000; stroke-width: 0.8"/>
      </g>
     </g>
     <g id="text_25">
      <!-- 50 -->
      <g transform="translate(421.72 132.246418)scale(0.1 -0.1)">
       <use xlink:href="#DejaVuSans-35"/>
       <use xlink:href="#DejaVuSans-30" x="63.623047"/>
      </g>
     </g>
    </g>
    <g id="ytick_12">
     <g id="line2d_25">
      <g>
       <use xlink:href="#m876ec1a1c7" x="414.72" y="92.080185" style="stroke: #000000; stroke-width: 0.8"/>
      </g>
     </g>
     <g id="text_26">
      <!-- 60 -->
      <g transform="translate(421.72 95.879403)scale(0.1 -0.1)">
       <defs>
        <path id="DejaVuSans-36" d="M 2113 2584 
Q 1688 2584 1439 2293 
Q 1191 2003 1191 1497 
Q 1191 994 1439 701 
Q 1688 409 2113 409 
Q 2538 409 2786 701 
Q 3034 994 3034 1497 
Q 3034 2003 2786 2293 
Q 2538 2584 2113 2584 
z
M 3366 4563 
L 3366 3988 
Q 3128 4100 2886 4159 
Q 2644 4219 2406 4219 
Q 1781 4219 1451 3797 
Q 1122 3375 1075 2522 
Q 1259 2794 1537 2939 
Q 1816 3084 2150 3084 
Q 2853 3084 3261 2657 
Q 3669 2231 3669 1497 
Q 3669 778 3244 343 
Q 2819 -91 2113 -91 
Q 1303 -91 875 529 
Q 447 1150 447 2328 
Q 447 3434 972 4092 
Q 1497 4750 2381 4750 
Q 2619 4750 2861 4703 
Q 3103 4656 3366 4563 
z
" transform="scale(0.015625)"/>
       </defs>
       <use xlink:href="#DejaVuSans-36"/>
       <use xlink:href="#DejaVuSans-30" x="63.623047"/>
      </g>
     </g>
    </g>
    <g id="ytick_13">
     <g id="line2d_26">
      <g>
       <use xlink:href="#m876ec1a1c7" x="414.72" y="55.71317" style="stroke: #000000; stroke-width: 0.8"/>
      </g>
     </g>
     <g id="text_27">
      <!-- 70 -->
      <g transform="translate(421.72 59.512388)scale(0.1 -0.1)">
       <use xlink:href="#DejaVuSans-37"/>
       <use xlink:href="#DejaVuSans-30" x="63.623047"/>
      </g>
     </g>
    </g>
    <g id="text_28">
     <!-- accuracy -->
     <g transform="translate(446.043438 197.087375)rotate(-90)scale(0.1 -0.1)">
      <use xlink:href="#DejaVuSans-61"/>
      <use xlink:href="#DejaVuSans-63" x="61.279297"/>
      <use xlink:href="#DejaVuSans-63" x="116.259766"/>
      <use xlink:href="#DejaVuSans-75" x="171.240234"/>
      <use xlink:href="#DejaVuSans-72" x="234.619141"/>
      <use xlink:href="#DejaVuSans-61" x="275.732422"/>
      <use xlink:href="#DejaVuSans-63" x="337.011719"/>
      <use xlink:href="#DejaVuSans-79" x="391.992188"/>
     </g>
    </g>
   </g>
   <g id="line2d_27">
    <path d="M 73.832727 295.488 
L 77.095587 261.427547 
L 78.727017 246.868637 
L 80.358447 238.059319 
L 81.989877 231.469142 
L 83.621307 222.189098 
L 85.252736 221.550254 
L 86.884166 216.674869 
L 88.515596 207.058591 
L 90.147026 201.544361 
L 91.778456 197.543183 
L 93.409886 194.584328 
L 95.041316 187.388931 
L 96.672746 187.523425 
L 99.935605 176.595836 
L 101.567035 171.485087 
L 103.198465 171.11523 
L 104.829895 170.072906 
L 106.461325 164.827664 
L 108.092755 162.474029 
L 109.724185 160.960978 
L 111.355614 158.607344 
L 112.987044 154.538919 
L 114.618474 154.572542 
L 116.249904 150.23513 
L 117.881334 146.704678 
L 119.512764 146.166705 
L 121.144194 144.519161 
L 122.775624 144.384667 
L 124.407053 142.40089 
L 126.038483 138.769568 
L 127.669913 137.222894 
L 129.301343 137.962607 
L 130.932773 134.633896 
L 132.564203 134.465779 
L 134.195633 132.313885 
L 135.827063 128.817056 
L 137.458492 129.523147 
L 139.089922 126.564292 
L 140.721352 128.211836 
L 142.352782 124.815878 
L 143.984212 123.370074 
L 145.615642 125.790955 
L 147.247072 121.487166 
L 148.878502 119.368895 
L 150.509931 119.839622 
L 152.141361 119.335272 
L 153.772791 116.578157 
L 155.404221 116.376417 
L 157.035651 114.762496 
L 158.667081 116.275547 
L 160.298511 113.921912 
L 161.929941 113.585679 
L 163.56137 110.895811 
L 165.1928 110.828564 
L 166.82423 108.67667 
L 170.08709 105.852309 
L 171.71852 106.861009 
L 174.98138 100.674313 
L 176.61281 105.616945 
L 178.244239 101.111416 
L 179.875669 102.288233 
L 181.507099 102.65809 
L 183.138529 99.363002 
L 184.769959 99.329379 
L 186.401389 96.605887 
L 188.032819 97.614588 
L 189.664249 97.009368 
L 191.295678 96.538641 
L 192.927108 93.613409 
L 194.558538 95.765304 
L 196.189968 92.739202 
L 197.821398 92.167605 
L 199.452828 94.453993 
L 201.084258 93.041812 
L 202.715688 93.378046 
L 204.347117 89.645854 
L 205.978547 89.982088 
L 207.609977 94.554863 
L 209.241407 89.343244 
L 210.872837 87.6957 
L 212.504267 87.59483 
L 215.767127 88.20005 
L 217.398556 90.385568 
L 219.029986 83.425534 
L 220.661416 88.132803 
L 222.292846 86.014532 
L 223.924276 84.098001 
L 225.555706 85.947286 
L 227.187136 87.090479 
L 228.818566 85.308442 
L 230.449995 79.424356 
L 232.081425 81.609874 
L 233.712855 82.551327 
L 235.344285 82.248717 
L 236.975715 79.962329 
L 238.607145 77.474202 
L 240.238575 79.558849 
L 241.870005 84.535105 
L 243.501434 81.340887 
L 246.764294 78.987252 
L 248.395724 78.180292 
L 250.027154 78.079422 
L 251.658584 79.558849 
L 253.290014 72.901426 
L 254.921444 75.759411 
L 256.552873 73.708386 
L 258.184303 73.4394 
L 259.815733 75.961151 
L 261.447163 75.826657 
L 263.078593 72.363452 
L 264.710023 72.531569 
L 266.341453 73.910126 
L 267.972883 77.575072 
L 269.604312 71.421999 
L 271.235742 72.195336 
L 272.867172 68.664884 
L 274.498602 74.04462 
L 276.130032 74.179113 
L 279.392892 69.270104 
L 281.024322 70.884025 
L 282.655751 70.917648 
L 284.287181 69.908948 
L 285.918611 67.286327 
L 287.550041 70.648662 
L 289.181471 69.673584 
L 290.812901 70.110688 
L 292.444331 68.765754 
L 294.075761 66.344873 
L 295.70719 67.084587 
L 297.33862 66.849223 
L 298.97005 73.372153 
L 300.60148 67.286327 
L 302.23291 66.546613 
L 303.86434 65.605159 
L 305.49577 66.8156 
L 307.1272 67.62256 
L 308.75863 70.917648 
L 310.390059 63.890368 
L 312.021489 63.117031 
L 313.652919 64.428342 
L 315.284349 65.201679 
L 316.915779 64.764575 
L 318.547209 64.932692 
L 320.178639 63.285148 
L 321.810069 64.361095 
L 323.441498 62.478188 
L 325.072928 64.058485 
L 326.704358 62.881668 
L 328.335788 65.537912 
L 329.967218 61.40224 
L 331.598648 62.679928 
L 333.230078 63.554135 
L 334.861508 63.991238 
L 338.124367 60.965137 
L 339.755797 63.083408 
L 341.387227 61.469487 
L 343.018657 63.184278 
L 344.650087 61.2005 
L 346.281517 63.722252 
L 347.912947 62.108331 
L 349.544376 62.948915 
L 351.175806 60.69615 
L 352.807236 64.865445 
L 354.438666 64.327472 
L 356.070096 61.772097 
L 357.701526 58.443386 
L 359.332956 59.855566 
L 360.964386 59.68745 
L 362.595815 57.703672 
L 364.227245 60.359917 
L 365.858675 58.846866 
L 367.490105 57.501932 
L 369.121535 54.408584 
L 370.752965 57.636425 
L 372.384395 57.300192 
L 374.015825 56.627725 
L 375.647254 54.37496 
L 377.278684 58.342516 
L 378.910114 58.544256 
L 380.541544 58.577879 
L 382.172974 55.215544 
L 383.804404 57.939035 
L 385.435834 56.762218 
L 387.067264 57.838165 
L 388.698693 54.543077 
L 390.330123 55.518154 
L 391.961553 59.922813 
L 393.592983 53.568 
L 395.224413 55.888011 
L 396.855843 56.291491 
L 398.487273 56.425985 
L 398.487273 56.425985 
" clip-path="url(#p9935758d96)" style="fill: none; stroke: #bf00bf; stroke-width: 1.5; stroke-linecap: square"/>
   </g>
   <g id="line2d_28">
    <path d="M 73.832727 288.711642 
L 75.464157 263.441915 
L 77.095587 242.495228 
L 78.727017 234.51766 
L 81.989877 214.81886 
L 83.621307 223.28667 
L 85.252736 207.153264 
L 86.884166 194.540684 
L 88.515596 192.17861 
L 90.147026 197.482133 
L 91.778456 193.73847 
L 93.409886 178.18444 
L 95.041316 174.708182 
L 96.672746 171.945002 
L 98.304175 165.126186 
L 99.935605 169.761198 
L 101.567035 165.037052 
L 103.198465 164.19027 
L 104.829895 158.129101 
L 106.461325 159.065017 
L 108.092755 153.850629 
L 109.724185 153.271253 
L 111.355614 147.967729 
L 112.987044 151.577691 
L 114.618474 152.023365 
L 116.249904 150.017831 
L 117.881334 151.042881 
L 119.512764 143.109881 
L 121.144194 151.845095 
L 122.775624 147.967729 
L 124.407053 146.541572 
L 126.038483 139.187948 
L 127.669913 146.452437 
L 129.301343 143.065313 
L 130.932773 147.031814 
L 132.564203 142.218532 
L 134.195633 145.650224 
L 135.827063 141.148914 
L 137.458492 136.291066 
L 139.089922 141.193482 
L 140.721352 139.901027 
L 142.352782 131.299514 
L 143.984212 141.327184 
L 145.615642 132.369132 
L 147.247072 139.277083 
L 148.878502 140.079296 
L 150.509931 137.583521 
L 152.141361 137.271549 
L 153.772791 131.21038 
L 155.404221 134.419234 
L 157.035651 129.784222 
L 158.667081 133.349616 
L 160.298511 137.895493 
L 161.929941 140.792375 
L 163.56137 135.310582 
L 165.1928 134.508369 
L 166.82423 136.781307 
L 168.45566 135.800824 
L 170.08709 135.35515 
L 171.71852 134.508369 
L 173.34995 131.566919 
L 174.98138 132.547402 
L 178.244239 134.909475 
L 179.875669 138.207464 
L 181.507099 130.007059 
L 183.138529 129.962492 
L 184.769959 128.402632 
L 186.401389 134.151829 
L 188.032819 131.700621 
L 189.664249 139.009678 
L 191.295678 129.427683 
L 192.927108 138.564004 
L 194.558538 130.452733 
L 196.189968 139.722757 
L 197.821398 126.931907 
L 199.452828 136.781307 
L 201.084258 135.221447 
L 202.715688 135.399717 
L 204.347117 133.394183 
L 205.978547 127.555851 
L 207.609977 134.686638 
L 209.241407 135.800824 
L 210.872837 133.527885 
L 212.504267 140.614105 
L 214.135697 138.519436 
L 215.767127 133.171346 
L 217.398556 141.015212 
L 219.029986 134.240964 
L 220.661416 131.254947 
L 222.292846 134.775773 
L 223.924276 133.928992 
L 225.555706 135.845391 
L 227.187136 131.477784 
L 228.818566 131.121245 
L 230.449995 130.140762 
L 232.081425 130.051627 
L 235.344285 139.277083 
L 236.975715 139.49992 
L 238.607145 129.962492 
L 240.238575 137.449818 
L 241.870005 133.79529 
L 243.501434 141.817425 
L 245.132864 133.572453 
L 246.764294 141.639156 
L 248.395724 136.915009 
L 250.027154 134.419234 
L 251.658584 135.087745 
L 253.290014 134.330099 
L 254.921444 131.522351 
L 256.552873 135.132312 
L 258.184303 134.99861 
L 259.815733 141.371751 
L 261.447163 138.474869 
L 263.078593 130.720138 
L 264.710023 134.775773 
L 266.341453 137.093279 
L 267.972883 136.068228 
L 269.604312 137.316116 
L 271.235742 140.970645 
L 272.867172 141.193482 
L 274.498602 132.993076 
L 276.130032 138.786841 
L 277.761462 133.750723 
L 279.392892 127.288447 
L 281.024322 133.394183 
L 282.655751 131.700621 
L 284.287181 135.266015 
L 285.918611 130.363599 
L 287.550041 138.029195 
L 289.181471 136.023661 
L 290.812901 134.508369 
L 292.444331 130.987542 
L 294.075761 129.65052 
L 295.70719 137.316116 
L 297.33862 134.107262 
L 298.97005 133.661588 
L 300.60148 135.533419 
L 302.23291 132.859374 
L 303.86434 136.068228 
L 305.49577 135.087745 
L 307.1272 132.101728 
L 308.75863 129.605952 
L 310.390059 136.825875 
L 312.021489 133.305048 
L 313.652919 130.631003 
L 315.284349 136.55847 
L 316.915779 133.305048 
L 318.547209 137.093279 
L 320.178639 133.438751 
L 323.441498 133.706155 
L 325.072928 137.583521 
L 326.704358 139.544487 
L 328.335788 129.784222 
L 329.967218 135.711689 
L 331.598648 131.254947 
L 333.230078 135.043178 
L 334.861508 136.424768 
L 336.492937 134.285532 
L 338.124367 130.987542 
L 339.755797 137.004144 
L 341.387227 131.878891 
L 343.018657 133.349616 
L 344.650087 139.678189 
L 346.281517 139.544487 
L 347.912947 132.725672 
L 349.544376 130.85384 
L 351.175806 137.94006 
L 352.807236 132.993076 
L 354.438666 130.363599 
L 356.070096 128.714604 
L 357.701526 130.720138 
L 359.332956 131.477784 
L 360.964386 132.859374 
L 362.595815 135.17688 
L 364.227245 131.121245 
L 365.858675 134.330099 
L 367.490105 128.135228 
L 369.121535 136.246498 
L 370.752965 131.878891 
L 372.384395 136.915009 
L 374.015825 130.942975 
L 375.647254 130.541868 
L 377.278684 136.023661 
L 378.910114 137.182414 
L 380.541544 136.112796 
L 382.172974 129.695087 
L 383.804404 139.856459 
L 385.435834 134.642071 
L 387.067264 131.789756 
L 388.698693 133.215914 
L 390.330123 138.029195 
L 391.961553 132.814807 
L 393.592983 136.692172 
L 395.224413 128.046093 
L 396.855843 135.800824 
L 398.487273 131.522351 
L 398.487273 131.522351 
" clip-path="url(#p9935758d96)" style="fill: none; stroke: #0000ff; stroke-width: 1.5; stroke-linecap: square"/>
   </g>
   <g id="patch_8">
    <path d="M 57.6 307.584 
L 57.6 41.472 
" style="fill: none; stroke: #000000; stroke-width: 0.8; stroke-linejoin: miter; stroke-linecap: square"/>
   </g>
   <g id="patch_9">
    <path d="M 414.72 307.584 
L 414.72 41.472 
" style="fill: none; stroke: #000000; stroke-width: 0.8; stroke-linejoin: miter; stroke-linecap: square"/>
   </g>
   <g id="patch_10">
    <path d="M 57.6 307.584 
L 414.72 307.584 
" style="fill: none; stroke: #000000; stroke-width: 0.8; stroke-linejoin: miter; stroke-linecap: square"/>
   </g>
   <g id="patch_11">
    <path d="M 57.6 41.472 
L 414.72 41.472 
" style="fill: none; stroke: #000000; stroke-width: 0.8; stroke-linejoin: miter; stroke-linecap: square"/>
   </g>
   <g id="legend_2">
    <g id="patch_12">
     <path d="M 278.18875 78.82825 
L 407.72 78.82825 
Q 409.72 78.82825 409.72 76.82825 
L 409.72 48.472 
Q 409.72 46.472 407.72 46.472 
L 278.18875 46.472 
Q 276.18875 46.472 276.18875 48.472 
L 276.18875 76.82825 
Q 276.18875 78.82825 278.18875 78.82825 
z
" style="fill: #ffffff; opacity: 0.8; stroke: #cccccc; stroke-linejoin: miter"/>
    </g>
    <g id="line2d_29">
     <path d="M 280.18875 54.570437 
L 290.18875 54.570437 
L 300.18875 54.570437 
" style="fill: none; stroke: #bf00bf; stroke-width: 1.5; stroke-linecap: square"/>
    </g>
    <g id="text_29">
     <!-- training accuracy -->
     <g transform="translate(308.18875 58.070437)scale(0.1 -0.1)">
      <use xlink:href="#DejaVuSans-74"/>
      <use xlink:href="#DejaVuSans-72" x="39.208984"/>
      <use xlink:href="#DejaVuSans-61" x="80.322266"/>
      <use xlink:href="#DejaVuSans-69" x="141.601562"/>
      <use xlink:href="#DejaVuSans-6e" x="169.384766"/>
      <use xlink:href="#DejaVuSans-69" x="232.763672"/>
      <use xlink:href="#DejaVuSans-6e" x="260.546875"/>
      <use xlink:href="#DejaVuSans-67" x="323.925781"/>
      <use xlink:href="#DejaVuSans-20" x="387.402344"/>
      <use xlink:href="#DejaVuSans-61" x="419.189453"/>
      <use xlink:href="#DejaVuSans-63" x="480.46875"/>
      <use xlink:href="#DejaVuSans-63" x="535.449219"/>
      <use xlink:href="#DejaVuSans-75" x="590.429688"/>
      <use xlink:href="#DejaVuSans-72" x="653.808594"/>
      <use xlink:href="#DejaVuSans-61" x="694.921875"/>
      <use xlink:href="#DejaVuSans-63" x="756.201172"/>
      <use xlink:href="#DejaVuSans-79" x="811.181641"/>
     </g>
    </g>
    <g id="line2d_30">
     <path d="M 280.18875 69.248562 
L 290.18875 69.248562 
L 300.18875 69.248562 
" style="fill: none; stroke: #0000ff; stroke-width: 1.5; stroke-linecap: square"/>
    </g>
    <g id="text_30">
     <!-- validation accuracy -->
     <g transform="translate(308.18875 72.748562)scale(0.1 -0.1)">
      <use xlink:href="#DejaVuSans-76"/>
      <use xlink:href="#DejaVuSans-61" x="59.179688"/>
      <use xlink:href="#DejaVuSans-6c" x="120.458984"/>
      <use xlink:href="#DejaVuSans-69" x="148.242188"/>
      <use xlink:href="#DejaVuSans-64" x="176.025391"/>
      <use xlink:href="#DejaVuSans-61" x="239.501953"/>
      <use xlink:href="#DejaVuSans-74" x="300.78125"/>
      <use xlink:href="#DejaVuSans-69" x="339.990234"/>
      <use xlink:href="#DejaVuSans-6f" x="367.773438"/>
      <use xlink:href="#DejaVuSans-6e" x="428.955078"/>
      <use xlink:href="#DejaVuSans-20" x="492.333984"/>
      <use xlink:href="#DejaVuSans-61" x="524.121094"/>
      <use xlink:href="#DejaVuSans-63" x="585.400391"/>
      <use xlink:href="#DejaVuSans-63" x="640.380859"/>
      <use xlink:href="#DejaVuSans-75" x="695.361328"/>
      <use xlink:href="#DejaVuSans-72" x="758.740234"/>
      <use xlink:href="#DejaVuSans-61" x="799.853516"/>
      <use xlink:href="#DejaVuSans-63" x="861.132812"/>
      <use xlink:href="#DejaVuSans-79" x="916.113281"/>
     </g>
    </g>
   </g>
  </g>
 </g>
 <defs>
  <clipPath id="p9935758d96">
   <rect x="57.6" y="41.472" width="357.12" height="266.112"/>
  </clipPath>
 </defs>
</svg>
